#Opt	Id	Name	Type	IP	Offset	Binary
-	0x01	fsbl1-boot	Binary		none	0x0		tf-a-stm32mp157c-dk2-flasher.stm32
-	0x03	ssbl-boot	Binary		none	0x0		u-boot-stm32mp157c-dk2-flasher.stm32
P	0x10	sdcard		RawImage	mmc0	0x00000000	../sdcard.bin
